PROFILE_ID,PRICE_A,DISTANCE_A,PRICE_B,DISTANCE_B,ANSWER
8,0.5,100,1.0,200,0
8,3.0,950,1.0,300,0
8,0.5,83,2.0,450,0
8,3.0,600,1.0,132,1
8,5.0,1750,2.0,200,0
8,3.0,833,4.0,1250,1
8,4.0,1500,5.0,2000,1
8,1.5,800,2.0,1000,0
8,1.0,200,2.0,450,0
8,1.5,800,3.0,1500,0
8,5.0,1879,0.5,83,1
8,3.5,800,4.0,1250,0
8,1.5,412,2.5,741,0
8,5.0,2000,1.0,100,0
8,4.5,1500,3.0,943,0
8,3.5,1200,1.0,200,0
8,2.5,800,5.0,1742,1
8,2.0,450,3.0,833,0
8,4.0,1200,5.0,1500,1
8,3.0,1350,2.0,903,1
