PROFILE_ID,PRICE_A,DISTANCE_A,PRICE_B,DISTANCE_B,ANSWER
41,0.5,100,1.0,200,1
41,3.0,950,1.0,300,0
41,0.5,83,2.0,450,1
41,3.0,600,1.0,132,0
41,5.0,1750,2.0,200,0
41,3.0,833,4.0,1250,1
41,4.0,1500,5.0,2000,1
41,1.5,800,2.0,1000,1
41,1.0,200,2.0,450,1
41,1.5,800,3.0,1500,1
41,5.0,1879,0.5,83,0
41,3.5,800,4.0,1250,1
41,1.5,412,2.5,741,1
41,5.0,2000,1.0,100,0
41,4.5,1500,3.0,943,0
41,3.5,1200,1.0,200,0
41,2.5,800,5.0,1742,0
41,2.0,450,3.0,833,1
41,4.0,1200,5.0,1500,1
41,3.0,1350,2.0,903,0
