PROFILE_ID,PRICE_A,DISTANCE_A,PRICE_B,DISTANCE_B,ANSWER
39,0.5,100,1.0,200,1
39,3.0,950,1.0,300,1
39,0.5,83,2.0,450,0
39,3.0,600,1.0,132,0
39,5.0,1750,2.0,200,1
39,3.0,833,4.0,1250,1
39,4.0,1500,5.0,2000,1
39,1.5,800,2.0,1000,1
39,1.0,200,2.0,450,1
39,1.5,800,3.0,1500,1
39,5.0,1879,0.5,83,0
39,3.5,800,4.0,1250,0
39,1.5,412,2.5,741,0
39,5.0,2000,1.0,100,1
39,4.5,1500,3.0,943,1
39,3.5,1200,1.0,200,1
39,2.5,800,5.0,1742,1
39,2.0,450,3.0,833,1
39,4.0,1200,5.0,1500,0
39,3.0,1350,2.0,903,1
