2 qid:1 1:0.5 2:100
1 qid:1 1:1 2:200
1 qid:2 1:3 2:950
2 qid:2 1:1 2:300
1 qid:3 1:0.5 2:83
2 qid:3 1:2 2:450
2 qid:4 1:3 2:600
1 qid:4 1:1 2:132
2 qid:5 1:5 2:1750
1 qid:5 1:2 2:200
1 qid:6 1:3 2:833
2 qid:6 1:4 2:1250
1 qid:7 1:4 2:1500
2 qid:7 1:5 2:2000
2 qid:8 1:1.5 2:800
1 qid:8 1:2 2:1000
2 qid:9 1:1 2:200
1 qid:9 1:2 2:450
2 qid:10 1:1.5 2:800
1 qid:10 1:3 2:1500
2 qid:11 1:5 2:1879
1 qid:11 1:0.5 2:83
1 qid:12 1:3.5 2:800
2 qid:12 1:4 2:1250
2 qid:13 1:1.5 2:412
1 qid:13 1:2.5 2:741
2 qid:14 1:5 2:2000
1 qid:14 1:1 2:100
2 qid:15 1:4.5 2:1500
1 qid:15 1:3 2:943
2 qid:16 1:3.5 2:1200
1 qid:16 1:1 2:200
2 qid:17 1:2.5 2:800
1 qid:17 1:5 2:1742
1 qid:18 1:2 2:450
2 qid:18 1:3 2:833
2 qid:19 1:4 2:1200
1 qid:19 1:5 2:1500
2 qid:20 1:3 2:1350
1 qid:20 1:2 2:903
